…
> # Print variance components of the model
> varcomp(ssn_mod)
# A tibble: 5 × 2
  varcomp            proportion
  <chr>                   <dbl>
1 Covariates (PR-sq)     0.0155
2 tailup_de              0.721 
3 taildown_de            0     
4 euclid_de              0.225 
5 nugget                 0.0388

> # Tidy the model output with confidence intervals and print
> print(tidy(ssn_mod, conf.int = TRUE))  
# A tibble: 21 × 7
   term                               estimate std.error statistic p.value conf.low conf.high
   <chr>                                 <dbl>     <dbl>     <dbl>   <dbl>    <dbl>     <dbl>
 1 (Intercept)                        -1.72      0.182      -9.44   0       -2.07    -1.36   
 2 ch_central.slope.difference         0.0134    0.0169      0.790  0.430   -0.0198   0.0466 
 3 ch_channel.width.over.valley.width  0.0229    0.0439      0.523  0.601   -0.0631   0.109  
 4 ch_curvature.median                -0.0172    0.0309     -0.557  0.578   -0.0778   0.0434 
 5 ch_stream.power.central.diff       -0.00162   0.00543    -0.298  0.765   -0.0123   0.00901
 6 ch_valley_width                    -0.0668    0.0414     -1.61   0.106   -0.148    0.0143 
 7 flow.accumulation.max              -0.0339    0.0290     -1.17   0.243   -0.0907   0.0230 
 8 hs_bare.earth.mean                  0.0273    0.0382      0.713  0.476   -0.0477   0.102  
 9 hs_curvature.median                -0.0285    0.0169     -1.69   0.0909  -0.0616   0.00454
10 hs_dnbr.median                     -0.0936    0.0466     -2.01   0.0445  -0.185   -0.00228
# ℹ 11 more rows
# ℹ Use `print(n = ...)` to see more rows
…
