…
> # Print variance components of the model
> varcomp(ssn_mod)
# A tibble: 6 × 2
  varcomp                     proportion
  <chr>                            <dbl>
1 Covariates (PR-sq)            0.0392  
2 tailup_de                     0.385   
3 taildown_de                   0       
4 euclid_de                     0.493   
5 nugget                        0.000356
6 1 | as.factor(ch_watershed)   0.0821  

> # Tidy the model output with confidence intervals and print
> print(tidy(ssn_mod, conf.int = TRUE))  
# A tibble: 23 × 7
   term                                estimate std.error statistic p.value conf.low conf.high
   <chr>                                  <dbl>     <dbl>     <dbl>   <dbl>    <dbl>     <dbl>
 1 (Intercept)                        -1.97        0.898    -2.19    0.0284 -3.73     -0.208  
 2 ch_change.in.slope.over.width      -0.0271      0.0178   -1.52    0.128  -0.0620    0.00779
 3 ch_channel.width.over.valley.width  0.0736      0.0756    0.973   0.330  -0.0746    0.222  
 4 ch_curvature.median                 0.000804    0.0666    0.0121  0.990  -0.130     0.131  
 5 ch_slope.median                     0.148       0.0706    2.10    0.0360  0.00969   0.287  
 6 ch_slope.over.width.central.diff    0.0458      0.0267    1.72    0.0862 -0.00651   0.0980 
 7 ch_stream.power.central.diff        0.00535     0.0177    0.303   0.762  -0.0293    0.0400 
 8 ch_valley_width                    -0.0489      0.0746   -0.655   0.513  -0.195     0.0974 
 9 flow.accumulation.max              -0.119       0.0745   -1.60    0.110  -0.265     0.0270 
10 hs_bare.earth.mean                  0.0872      0.0678    1.29    0.198  -0.0456    0.220  
# ℹ 13 more rows
# ℹ Use `print(n = ...)` to see more rows
…
