…
# A tibble: 5 × 2
  varcomp            proportion
  <chr>                   <dbl>
1 Covariates (PR-sq)    0.0282 
2 tailup_de             0.652  
3 taildown_de           0.00174
4 euclid_de             0.263  
5 nugget                0.0551 
# A tibble: 21 × 7
   term                               estimate std.error statistic p.value conf.low conf.high
   <chr>                                 <dbl>     <dbl>     <dbl>   <dbl>    <dbl>     <dbl>
 1 (Intercept)                         0.137      0.396     0.346    0.730  -0.639     0.912 
 2 ch_central.slope.difference         0.0184     0.0373    0.495    0.621  -0.0546    0.0915
 3 ch_channel.width.over.valley.width  0.0529     0.0762    0.695    0.487  -0.0963    0.202 
 4 ch_channel_width                   -0.134      0.0831   -1.61     0.108  -0.296     0.0293
 5 ch_curvature.median                -0.0317     0.0420   -0.755    0.450  -0.114     0.0506
 6 ch_flow.accumulation.max           -0.00531    0.161    -0.0331   0.974  -0.320     0.310 
 7 ch_slope.median                     0.00240    0.0868    0.0277   0.978  -0.168     0.172 
 8 ch_slope.over.width                -0.0395     0.0620   -0.638    0.524  -0.161     0.0820
 9 ch_slope.over.width.central.diff    0.0263     0.0342    0.770    0.441  -0.0407    0.0934
10 ch_valley_width                    -0.0261     0.0516   -0.505    0.613  -0.127     0.0751
# ℹ 11 more rows
# ℹ Use `print(n = ...)` to see more rows
…
