…
> # Print variance components of the model
> varcomp(ssn_mod)
# A tibble: 5 × 2
  varcomp            proportion
  <chr>                   <dbl>
1 Covariates (PR-sq)     0.0233
2 tailup_de              0.844 
3 taildown_de            0     
4 euclid_de              0.118 
5 nugget                 0.0155

> # Tidy the model output with confidence intervals and print
> print(tidy(ssn_mod, conf.int = TRUE))  
# A tibble: 21 × 7
   term                               estimate std.error statistic      p.value conf.low conf.high
   <chr>                                 <dbl>     <dbl>     <dbl>        <dbl>    <dbl>     <dbl>
 1 (Intercept)                        -1.87      0.341     -5.47   0.0000000458 -2.53     -1.20   
 2 ch_central.slope.difference        -0.00217   0.0234    -0.0929 0.926        -0.0480    0.0436 
 3 ch_channel.width.over.valley.width -0.0242    0.0576    -0.421  0.674        -0.137     0.0886 
 4 ch_curvature.median                -0.0174    0.0394    -0.442  0.658        -0.0946    0.0598 
 5 ch_slope.over.width.central.diff    0.0311    0.0165     1.88   0.0601       -0.00133   0.0635 
 6 ch_stream.power                     0.0658    0.0459     1.43   0.151        -0.0241    0.156  
 7 ch_stream.power.central.diff       -0.0102    0.00785   -1.30   0.192        -0.0256    0.00515
 8 ch_valley_width                    -0.0844    0.0516    -1.64   0.102        -0.185     0.0167 
 9 flow.accumulation.max              -0.0480    0.0441    -1.09   0.277        -0.134     0.0385 
10 hs_aspect.median                    0.0937    0.0305     3.07   0.00215       0.0339    0.154  
# ℹ 11 more rows
# ℹ Use `print(n = ...)` to see more rows
…
> # Print variance components of the model
> varcomp(ssn_mod)
# A tibble: 5 × 2
  varcomp            proportion
  <chr>                   <dbl>
1 Covariates (PR-sq)     0.0233
2 tailup_de              0.844 
3 taildown_de            0     
4 euclid_de              0.118 
5 nugget                 0.0155

> # Tidy the model output with confidence intervals and print
> print(tidy(ssn_mod, conf.int = TRUE))  
# A tibble: 21 × 7
   term                               estimate std.error statistic      p.value conf.low conf.high
   <chr>                                 <dbl>     <dbl>     <dbl>        <dbl>    <dbl>     <dbl>
 1 (Intercept)                        -1.87      0.341     -5.47   0.0000000458 -2.53     -1.20   
 2 ch_central.slope.difference        -0.00217   0.0234    -0.0929 0.926        -0.0480    0.0436 
 3 ch_channel.width.over.valley.width -0.0242    0.0576    -0.421  0.674        -0.137     0.0886 
 4 ch_curvature.median                -0.0174    0.0394    -0.442  0.658        -0.0946    0.0598 
 5 ch_slope.over.width.central.diff    0.0311    0.0165     1.88   0.0601       -0.00133   0.0635 
 6 ch_stream.power                     0.0658    0.0459     1.43   0.151        -0.0241    0.156  
 7 ch_stream.power.central.diff       -0.0102    0.00785   -1.30   0.192        -0.0256    0.00515
 8 ch_valley_width                    -0.0844    0.0516    -1.64   0.102        -0.185     0.0167 
 9 flow.accumulation.max              -0.0480    0.0441    -1.09   0.277        -0.134     0.0385 
10 hs_aspect.median                    0.0937    0.0305     3.07   0.00215       0.0339    0.154  
# ℹ 11 more rows
# ℹ Use `print(n = ...)` to see more rows
…
> # Print variance components of the model
> varcomp(ssn_mod)
# A tibble: 5 × 2
  varcomp            proportion
  <chr>                   <dbl>
1 Covariates (PR-sq)     0.0155
2 tailup_de              0.721 
3 taildown_de            0     
4 euclid_de              0.225 
5 nugget                 0.0388

> # Tidy the model output with confidence intervals and print
> print(tidy(ssn_mod, conf.int = TRUE))  
# A tibble: 21 × 7
   term                               estimate std.error statistic p.value conf.low conf.high
   <chr>                                 <dbl>     <dbl>     <dbl>   <dbl>    <dbl>     <dbl>
 1 (Intercept)                        -1.72      0.182      -9.44   0       -2.07    -1.36   
 2 ch_central.slope.difference         0.0134    0.0169      0.790  0.430   -0.0198   0.0466 
 3 ch_channel.width.over.valley.width  0.0229    0.0439      0.523  0.601   -0.0631   0.109  
 4 ch_curvature.median                -0.0172    0.0309     -0.557  0.578   -0.0778   0.0434 
 5 ch_stream.power.central.diff       -0.00162   0.00543    -0.298  0.765   -0.0123   0.00901
 6 ch_valley_width                    -0.0668    0.0414     -1.61   0.106   -0.148    0.0143 
 7 flow.accumulation.max              -0.0339    0.0290     -1.17   0.243   -0.0907   0.0230 
 8 hs_bare.earth.mean                  0.0273    0.0382      0.713  0.476   -0.0477   0.102  
 9 hs_curvature.median                -0.0285    0.0169     -1.69   0.0909  -0.0616   0.00454
10 hs_dnbr.median                     -0.0936    0.0466     -2.01   0.0445  -0.185   -0.00228
# ℹ 11 more rows
# ℹ Use `print(n = ...)` to see more rows
…
> # Print variance components of the model
> varcomp(ssn_mod)
# A tibble: 6 × 2
  varcomp                     proportion
  <chr>                            <dbl>
1 Covariates (PR-sq)            0.0392  
2 tailup_de                     0.385   
3 taildown_de                   0       
4 euclid_de                     0.493   
5 nugget                        0.000356
6 1 | as.factor(ch_watershed)   0.0821  

> # Tidy the model output with confidence intervals and print
> print(tidy(ssn_mod, conf.int = TRUE))  
# A tibble: 23 × 7
   term                                estimate std.error statistic p.value conf.low conf.high
   <chr>                                  <dbl>     <dbl>     <dbl>   <dbl>    <dbl>     <dbl>
 1 (Intercept)                        -1.97        0.898    -2.19    0.0284 -3.73     -0.208  
 2 ch_change.in.slope.over.width      -0.0271      0.0178   -1.52    0.128  -0.0620    0.00779
 3 ch_channel.width.over.valley.width  0.0736      0.0756    0.973   0.330  -0.0746    0.222  
 4 ch_curvature.median                 0.000804    0.0666    0.0121  0.990  -0.130     0.131  
 5 ch_slope.median                     0.148       0.0706    2.10    0.0360  0.00969   0.287  
 6 ch_slope.over.width.central.diff    0.0458      0.0267    1.72    0.0862 -0.00651   0.0980 
 7 ch_stream.power.central.diff        0.00535     0.0177    0.303   0.762  -0.0293    0.0400 
 8 ch_valley_width                    -0.0489      0.0746   -0.655   0.513  -0.195     0.0974 
 9 flow.accumulation.max              -0.119       0.0745   -1.60    0.110  -0.265     0.0270 
10 hs_bare.earth.mean                  0.0872      0.0678    1.29    0.198  -0.0456    0.220  
# ℹ 13 more rows
# ℹ Use `print(n = ...)` to see more rows
…
